{
  "project_info": {
    "project_number": "275574817107",
    "firebase_url": "https://lovefootball-c5c8d.firebaseio.com",
    "project_id": "lovefootball-c5c8d",
    "storage_bucket": "lovefootball-c5c8d.appspot.com"
  },
  "client": [
    {
      "client_info": {
        "mobilesdk_app_id": "1:275574817107:android:9b4bc7e72a39421862a1a6",
        "android_client_info": {
          "package_name": "app.himaproduction.lifefootball"
        }
      },
      "oauth_client": [
        {
          "client_id": "275574817107-390icl6ougg7nvicdkps61keioc4l218.apps.googleusercontent.com",
          "client_type": 1,
          "android_info": {
            "package_name": "app.himaproduction.lifefootball",
            "certificate_hash": "974615af3b9f826e69efc8c3f0b9e493501665d5"
          }
        },
        {
          "client_id": "275574817107-69dk5jfb2catbfo5952fsasiv1o2hevn.apps.googleusercontent.com",
          "client_type": 3
        }
      ],
      "api_key": [
        {
          "current_key": "AIzaSyC5VPp6AMGMBOBbyjqUABA8CUpBQevjZzw"
        }
      ],
      "services": {
        "appinvite_service": {
          "other_platform_oauth_client": [
            {
              "client_id": "275574817107-69dk5jfb2catbfo5952fsasiv1o2hevn.apps.googleusercontent.com",
              "client_type": 3
            }
          ]
        }
      }
    }
  ],
  "configuration_version": "1"
}